module github.com/gitpod/mycli

go 1.16

require (
	github.com/bketelsen/crypt v0.0.4 // indirect
	github.com/coreos/bbolt v1.3.2 // indirect
	github.com/coreos/etcd v3.3.13+incompatible // indirect
	github.com/coreos/go-systemd v0.0.0-20190321100706-95778dfbb74e // indirect
	github.com/coreos/pkg v0.0.0-20180928190104-399ea9e2e55f // indirect
	github.com/dgrijalva/jwt-go v3.2.0+incompatible // indirect
	github.com/gorilla/websocket v1.4.2 // indirect
	github.com/grpc-ecosystem/go-grpc-middleware v1.0.0 // indirect
	github.com/grpc-ecosystem/go-grpc-prometheus v1.2.0 // indirect
	github.com/jonboulle/clockwork v0.1.0 // indirect
	github.com/mitchellh/go-homedir v1.1.0
	github.com/modern-go/concurrent v0.0.0-20180306012644-bacd9c7ef1dd // indirect
	github.com/prometheus/tsdb v0.7.1 // indirect
	github.com/shurcooL/sanitized_anchor_name v1.0.0 // indirect
	github.com/smartystreets/goconvey v1.6.4 // indirect
	github.com/soheilhy/cmux v0.1.4 // indirect
	github.com/spf13/cobra v1.3.0
	github.com/spf13/viper v1.10.0
	github.com/tmc/grpc-websocket-proxy v0.0.0-20190109142713-0ad062ec5ee5 // indirect
	github.com/xiang90/probing v0.0.0-20190116061207-43a291ad63a2 // indirect
	go.etcd.io/bbolt v1.3.2 // indirect
	gopkg.in/resty.v1 v1.12.0 // indirect
)
